#condition number  40.06839496092141
#n_params, n_features, rmse_validation, rms_val_std, rmse_train, n_zero_params, n_zero_params_std, cutoffs [5.4, 5.4]
#Var(y) =  14.267341077247984
40 1 3.9556954554407024 0.5976543929003966 3.7577730039457027 1.0 0.0
40 2 3.8041243112060465 0.6211927504275434 3.6076423610693356 2.0 0.0
40 3 2.9223019797095384 0.36055520542477726 2.857066231447205 3.0 0.0
40 4 1.3022050614639256 0.22112049321513366 1.3048419680247763 4.0 0.0
40 5 1.0042471469553322 0.13068989458443955 0.9726753229764886 5.0 0.0
40 6 0.6724246977780827 0.08199484764186817 0.6629875855950864 6.0 0.0
40 7 0.4682136590271635 0.06770333759858121 0.45248629000508056 7.0 0.0
40 8 0.22011287469701413 0.03489919973038838 0.21820193358341722 8.0 0.0
40 9 0.21151342303482704 0.03050839893415838 0.20365782928825082 9.0 0.0
40 10 0.21690932602862023 0.03670910597242409 0.20044963485463377 10.0 0.0
40 11 0.21434419357552084 0.029930537877119332 0.19643746267289208 11.0 0.0
40 12 0.2053989413010795 0.03320215339259893 0.19450104194018056 12.0 0.0
40 13 0.21618923816009214 0.03334262027268257 0.19155546876489385 13.0 0.0
40 14 0.21827532786024564 0.03205871024448405 0.1897719511104618 14.0 0.0
40 15 0.2135540715679338 0.03513856448421514 0.1879198981966982 15.0 0.0
40 16 0.22075726875652832 0.04161979665021997 0.18494190137574984 16.0 0.0
40 17 0.21066711403126454 0.035152271104379997 0.18458829109577105 17.0 0.0
40 18 0.22276619647446821 0.0376168960450107 0.1819177822860703 18.0 0.0
40 19 0.21178022098499968 0.030271282869241578 0.18206927264945968 19.0 0.0
40 20 0.22405815359316408 0.044925632793844185 0.17996720312655753 20.0 0.0
40 21 0.2232521348366843 0.028661052260213853 0.1790127047002624 21.0 0.0
40 22 0.22311036958470956 0.03739259574613089 0.17839223113892735 22.0 0.0
40 23 0.20847718115806704 0.030264437875770857 0.17899517109614815 23.0 0.0
40 24 0.21349282352288482 0.03476933652987583 0.17761878906045198 24.0 0.0
40 25 0.2227217738663051 0.045209055979483485 0.17587185257082869 25.0 0.0
40 26 0.21831868746511943 0.03623540613064056 0.176128937010254 26.0 0.0
40 27 0.21585239370662146 0.04073032488271687 0.17580527976911825 27.0 0.0
40 28 0.222843402872964 0.035990964801969484 0.17486845443660923 28.0 0.0
40 29 0.21267789511062377 0.03205430085445123 0.17562468684403526 29.0 0.0
40 30 0.2104377778283238 0.031670172732892285 0.1755268843158148 30.0 0.0
40 31 0.22582128157249437 0.03909865560313368 0.17364522838670537 31.0 0.0
40 32 0.20611328874884025 0.03595983497969097 0.1756445624407186 32.0 0.0
40 33 0.21499056490882956 0.03824727034334164 0.17456324971923287 33.0 0.0
40 34 0.21308788807911982 0.035602826076233586 0.1748033381052568 34.0 0.0
40 35 0.21432786280653415 0.030245433121672043 0.174446676903431 35.0 0.0
40 36 0.2131954406826307 0.028612870471786792 0.17457642303091994 36.0 0.0
40 37 0.21234312250366447 0.037317947158436754 0.17470979395809078 37.0 0.0
40 38 0.2171896387948278 0.033144447061826836 0.17407679432038126 38.0 0.0
40 39 0.2132236991467891 0.0367831202814213 0.17458893287491004 39.0 0.0
40 40 0.22008749029867142 0.03551824165938014 0.17410144807389988 40.0 0.0